{
    "/js/LoginController.js": "/js/LoginController.js",
    "/js/UserRegistrationController.js": "/js/UserRegistrationController.js",
    "/js/admin.js": "/js/admin.js",
    "/js/app.js": "/js/app.js",
    "/css/app.css": "/css/app.css",
    "/js/jquery-easing.js": "/js/jquery-easing.js",
    "/js/loadingModal.js": "/js/loadingModal.js",
    "/css/all.css": "/css/all.css",
    "/css/loadingModal.css": "/css/loadingModal.css"
}
